module finddup

require (
	github.com/google/pprof v0.0.0-20181026152656-fde099a545de // indirect
	github.com/ianlancetaylor/demangle v0.0.0-20181102032728-5e5cf60278f6 // indirect
	golang.org/x/arch v0.0.0-20180920145803-b19384d3c130 // indirect
	golang.org/x/crypto v0.0.0-20181106171534-e4dc69e5b2fd // indirect
	golang.org/x/sys v0.0.0-20181107165924-66b7b1311ac8 // indirect
)
